^Z:\VISUALSTUDIO ПРОЕКТЫ\HOMEWORK13.4\HOMEWORK13.4.CPP
Z:\VISUALSTUDIO проекты\HOMEWORK13.4\DEBUG\VC142.PDB
Z:\VISUALSTUDIO проекты\HOMEWORK13.4\DEBUG\VC142.IDB
Z:\VISUALSTUDIO проекты\HOMEWORK13.4\DEBUG\HOMEWORK13.4.OBJ
